{
   "accion": [
      {
         "@nombre": "JUEGO DE TRONOS",
         "@link": "url"
      },
      {
         "@nombre": "EL MENTALISTA",
         "@link": "url"
      }
   ],
   "comedia": [
      {
         "@nombre": "LA TEORIA DEL BIG BANG"
      }
   ],
   "vos": [
      {
         "@nombre": "JUEGO DE TRONOS"
      },
      {
         "@nombre": "EL MENTALISTA"
      }
   ]
}